<svg id="cloud-computing_5_" data-name="cloud-computing (5)" xmlns="http://www.w3.org/2000/svg" width="49.755" height="45.546" viewBox="0 0 49.755 45.546">
  <path id="Path_10379" data-name="Path 10379" d="M39.085,34.077A15.55,15.55,0,0,0,8.3,37.139c0,.35.014.709.046,1.089A9.33,9.33,0,0,0,9.34,56.836h11.4V52.511a3.11,3.11,0,0,1-3.237-5.132l4.147-4.147a3.064,3.064,0,0,1,1.4-.79l.381-.075a3.06,3.06,0,0,1,1.451.135l.5.228a3.106,3.106,0,0,1,.653.5l4.147,4.147a3.11,3.11,0,0,1,0,4.4,3.172,3.172,0,0,1-3.228.736v4.323h11.4a11.391,11.391,0,0,0,.717-22.76Z" transform="translate(0 -21.657)" fill="#c8cbde"/>
  <path id="Path_10380" data-name="Path 10380" d="M202.426,260.344l-4.147-4.147a1.038,1.038,0,0,0-.326-.207h0a1.022,1.022,0,0,0-.527-.052.949.949,0,0,0-.129.025,1.008,1.008,0,0,0-.471.253l-4.147,4.147a1.037,1.037,0,0,0,1.466,1.466l2.362-2.395v18.231a1.037,1.037,0,0,0,2.073,0V259.434l2.376,2.376a1.037,1.037,0,0,0,1.466-1.466h0Z" transform="translate(-173.692 -233.156)" fill="#5b63aa"/>
</svg>
