<svg xmlns="http://www.w3.org/2000/svg" width="49.688" height="42.476" viewBox="0 0 49.688 42.476">
  <path id="Union_3" data-name="Union 3" d="M-5451.391,2964.476a5.575,5.575,0,0,1-5.609-5.611v-27.248a5.575,5.575,0,0,1,5.609-5.61h3.206v1.6h-3.206a3.968,3.968,0,0,0-4.006,4.007v27.248a3.967,3.967,0,0,0,4.006,4.007h38.469a3.968,3.968,0,0,0,4.007-4.007v-27.248a3.969,3.969,0,0,0-4.007-4.007h-3.206v-1.6h3.206a5.575,5.575,0,0,1,5.609,5.61v27.248a5.575,5.575,0,0,1-5.609,5.611Zm.8-4.808a1.608,1.608,0,0,1-1.6-1.6v-24.042h40.071v24.042a1.608,1.608,0,0,1-1.6,1.6Zm0-1.6h36.866v-22.44h-36.866Zm19.235-3.2v-6.412h6.411v6.412Zm1.6-1.6h3.206v-3.2h-3.206Zm-9.617,1.6v-6.412h6.412v6.412Zm1.6-1.6h3.2v-3.2h-3.2Zm-9.618,1.6v-6.412h6.412v6.412Zm1.6-1.6h3.206v-3.2h-3.206Zm22.44-8.014v-6.411h6.411v6.411Zm1.6-1.6h3.206v-3.206h-3.206Zm-9.617,1.6v-6.411h6.411v6.411Zm1.6-1.6h3.206v-3.206h-3.206Zm-9.617,1.6v-6.411h6.412v6.411Zm1.6-1.6h3.2v-3.206h-3.2Zm14.425-12.022V2922h6.411v9.617Zm1.6-1.6h3.206V2923.6h-3.206Zm-8.014,1.6v-1.6h1.6v1.6Zm-3.206,0v-1.6h1.6v1.6Zm-3.2,0v-1.6h1.6v1.6Zm-11.221,0V2922h6.412v9.617Zm1.6-1.6h3.206V2923.6h-3.206Zm5.61-2.4v-1.6h16.029v1.6Z" transform="translate(5457 -2922)" fill="#36c4d9"/>
</svg>
